{
    "scope" :[
        "https://www.googleapis.com/auth/gmail.readonly",
        "https://www.googleapis.com/auth/calendar"
    ],
    "logPath": "app.log",
    "tokenPath": "token.js",
    "credentialsPath" : "credentials.json",
    "dbIpAddress":"172.20.0.3",
    "dbLogName":"calendar",
    "dbLogPasswd":"calendar"
}